{
  "collectionName": "components_seo_seos",
  "info": {
    "name": "SEO",
    "icon": "ad"
  },
  "options": {},
  "attributes": {
    "meta_title": {
      "type": "string"
    },
    "meta_description": {
      "type": "string"
    },
    "meta": {
      "type": "component",
      "repeatable": true,
      "component": "seo.meta"
    }
  }
}
